%YAML 1.1
%TAG !u! tag:unity3d.com,2011:
--- !u!114 &11400000
MonoBehaviour:
  m_ObjectHideFlags: 0
  m_CorrespondingSourceObject: {fileID: 0}
  m_PrefabInstance: {fileID: 0}
  m_PrefabAsset: {fileID: 0}
  m_GameObject: {fileID: 0}
  m_Enabled: 1
  m_EditorHideFlags: 0
  m_Script: {fileID: 11500000, guid: f6276fa7695ffed4ba683113fe47d8f2, type: 3}
  m_Name: AsteroidSmallData
  m_EditorClassIdentifier: 
  unitWeapon: {fileID: 0}
  explosion: {fileID: 21300000, guid: 1894c7525a4dbe14ab367fdec625e5b4, type: 3}
  moveSpeed: 2.5
  acceleration: 0
  maxSpeed: 0
  angleToRotate: 0
  points: 100
